# ImageMagick pixel enumeration: 16,16,255,srgb
0,0: (255,0,255)  #FF00FF  magenta
1,0: (255,0,255)  #FF00FF  magenta
2,0: (255,0,255)  #FF00FF  magenta
3,0: (255,0,255)  #FF00FF  magenta
4,0: (255,0,255)  #FF00FF  magenta
5,0: (255,0,255)  #FF00FF  magenta
6,0: (255,0,255)  #FF00FF  magenta
7,0: (163,48,0)  #A33000  srgb(163,48,0)
8,0: (166,49,0)  #A63100  srgb(166,49,0)
9,0: (151,45,0)  #972D00  srgb(151,45,0)
10,0: (161,47,0)  #A12F00  srgb(161,47,0)
11,0: (255,0,255)  #FF00FF  magenta
12,0: (255,0,255)  #FF00FF  magenta
13,0: (255,0,255)  #FF00FF  magenta
14,0: (255,0,255)  #FF00FF  magenta
15,0: (255,0,255)  #FF00FF  magenta
0,1: (255,0,255)  #FF00FF  magenta
1,1: (255,0,255)  #FF00FF  magenta
2,1: (255,0,255)  #FF00FF  magenta
3,1: (255,0,255)  #FF00FF  magenta
4,1: (155,46,0)  #9B2E00  srgb(155,46,0)
5,1: (166,49,0)  #A63100  srgb(166,49,0)
6,1: (150,44,0)  #962C00  srgb(150,44,0)
7,1: (179,72,26)  #B3481A  srgb(179,72,26)
8,1: (196,79,28)  #C44F1C  srgb(196,79,28)
9,1: (196,79,28)  #C44F1C  srgb(196,79,28)
10,1: (193,78,28)  #C14E1C  srgb(193,78,28)
11,1: (166,49,0)  #A63100  srgb(166,49,0)
12,1: (163,48,0)  #A33000  srgb(163,48,0)
13,1: (255,0,255)  #FF00FF  magenta
14,1: (255,0,255)  #FF00FF  magenta
15,1: (255,0,255)  #FF00FF  magenta
0,2: (255,0,255)  #FF00FF  magenta
1,2: (166,49,0)  #A63100  srgb(166,49,0)
2,2: (166,49,0)  #A63100  srgb(166,49,0)
3,2: (161,48,0)  #A13000  srgb(161,48,0)
4,2: (196,79,28)  #C44F1C  srgb(196,79,28)
5,2: (191,77,27)  #BF4D1B  srgb(191,77,27)
6,2: (196,79,28)  #C44F1C  srgb(196,79,28)
7,2: (215,78,17)  #D74E11  srgb(215,78,17)
8,2: (224,81,18)  #E05112  srgb(224,81,18)
9,2: (161,48,0)  #A13000  srgb(161,48,0)
10,2: (163,48,0)  #A33000  srgb(163,48,0)
11,2: (181,73,26)  #B5491A  srgb(181,73,26)
12,2: (196,79,28)  #C44F1C  srgb(196,79,28)
13,2: (156,46,0)  #9C2E00  srgb(156,46,0)
14,2: (255,0,255)  #FF00FF  magenta
15,2: (255,0,255)  #FF00FF  magenta
0,3: (152,45,0)  #982D00  srgb(152,45,0)
1,3: (184,74,26)  #B84A1A  srgb(184,74,26)
2,3: (196,79,28)  #C44F1C  srgb(196,79,28)
3,3: (196,79,28)  #C44F1C  srgb(196,79,28)
4,3: (221,80,18)  #DD5012  srgb(221,80,18)
5,3: (222,80,18)  #DE5012  srgb(222,80,18)
6,3: (206,74,17)  #CE4A11  srgb(206,74,17)
7,3: (224,81,18)  #E05112  srgb(224,81,18)
8,3: (156,46,0)  #9C2E00  srgb(156,46,0)
9,3: (225,204,119)  #E1CC77  srgb(225,204,119)
10,3: (226,205,120)  #E2CD78  srgb(226,205,120)
11,3: (165,49,0)  #A53100  srgb(165,49,0)
12,3: (198,71,16)  #C64710  srgb(198,71,16)
13,3: (196,79,28)  #C44F1C  srgb(196,79,28)
14,3: (165,49,0)  #A53100  srgb(165,49,0)
15,3: (255,0,255)  #FF00FF  magenta
0,4: (193,78,28)  #C14E1C  srgb(193,78,28)
1,4: (224,81,18)  #E05112  srgb(224,81,18)
2,4: (208,75,17)  #D04B11  srgb(208,75,17)
3,4: (220,80,18)  #DC5012  srgb(220,80,18)
4,4: (224,81,18)  #E05112  srgb(224,81,18)
5,4: (224,81,18)  #E05112  srgb(224,81,18)
6,4: (224,81,18)  #E05112  srgb(224,81,18)
7,4: (204,74,16)  #CC4A10  srgb(204,74,16)
8,4: (166,49,0)  #A63100  srgb(166,49,0)
9,4: (248,225,131)  #F8E183  srgb(248,225,131)
10,4: (0,0,0)  #000000  black
11,4: (166,49,0)  #A63100  srgb(166,49,0)
12,4: (224,81,18)  #E05112  srgb(224,81,18)
13,4: (196,79,28)  #C44F1C  srgb(196,79,28)
14,4: (166,49,0)  #A63100  srgb(166,49,0)
15,4: (255,0,255)  #FF00FF  magenta
0,5: (224,81,18)  #E05112  srgb(224,81,18)
1,5: (217,78,17)  #D94E11  srgb(217,78,17)
2,5: (224,81,18)  #E05112  srgb(224,81,18)
3,5: (217,78,17)  #D94E11  srgb(217,78,17)
4,5: (224,81,18)  #E05112  srgb(224,81,18)
5,5: (216,78,17)  #D84E11  srgb(216,78,17)
6,5: (224,81,18)  #E05112  srgb(224,81,18)
7,5: (224,81,18)  #E05112  srgb(224,81,18)
8,5: (166,49,0)  #A63100  srgb(166,49,0)
9,5: (242,219,128)  #F2DB80  srgb(242,219,128)
10,5: (248,225,131)  #F8E183  srgb(248,225,131)
11,5: (161,48,0)  #A13000  srgb(161,48,0)
12,5: (224,81,18)  #E05112  srgb(224,81,18)
13,5: (196,79,28)  #C44F1C  srgb(196,79,28)
14,5: (166,49,0)  #A63100  srgb(166,49,0)
15,5: (255,0,255)  #FF00FF  magenta
0,6: (224,81,18)  #E05112  srgb(224,81,18)
1,6: (223,81,18)  #DF5112  srgb(223,81,18)
2,6: (218,79,18)  #DA4F12  srgb(218,79,18)
3,6: (224,81,18)  #E05112  srgb(224,81,18)
4,6: (197,71,16)  #C54710  srgb(197,71,16)
5,6: (204,74,16)  #CC4A10  srgb(204,74,16)
6,6: (218,79,18)  #DA4F12  srgb(218,79,18)
7,6: (224,81,18)  #E05112  srgb(224,81,18)
8,6: (204,72,13)  #CC480D  srgb(204,72,13)
9,6: (155,46,0)  #9B2E00  srgb(155,46,0)
10,6: (150,44,0)  #962C00  srgb(150,44,0)
11,6: (213,75,14)  #D54B0E  srgb(213,75,14)
12,6: (203,73,16)  #CB4910  srgb(203,73,16)
13,6: (210,76,17)  #D24C11  srgb(210,76,17)
14,6: (176,71,25)  #B04719  srgb(176,71,25)
15,6: (166,49,0)  #A63100  srgb(166,49,0)
0,7: (174,70,25)  #AE4619  srgb(174,70,25)
1,7: (174,70,25)  #AE4619  srgb(174,70,25)
2,7: (224,81,18)  #E05112  srgb(224,81,18)
3,7: (224,81,18)  #E05112  srgb(224,81,18)
4,7: (224,81,18)  #E05112  srgb(224,81,18)
5,7: (224,81,18)  #E05112  srgb(224,81,18)
6,7: (224,81,18)  #E05112  srgb(224,81,18)
7,7: (218,79,18)  #DA4F12  srgb(218,79,18)
8,7: (213,77,17)  #D54D11  srgb(213,77,17)
9,7: (224,81,18)  #E05112  srgb(224,81,18)
10,7: (224,81,18)  #E05112  srgb(224,81,18)
11,7: (224,81,18)  #E05112  srgb(224,81,18)
12,7: (224,81,18)  #E05112  srgb(224,81,18)
13,7: (224,81,18)  #E05112  srgb(224,81,18)
14,7: (196,79,28)  #C44F1C  srgb(196,79,28)
15,7: (166,49,0)  #A63100  srgb(166,49,0)
0,8: (223,81,18)  #DF5112  srgb(223,81,18)
1,8: (224,81,18)  #E05112  srgb(224,81,18)
2,8: (151,61,22)  #973D16  srgb(151,61,22)
3,8: (156,63,22)  #9C3F16  srgb(156,63,22)
4,8: (218,79,18)  #DA4F12  srgb(218,79,18)
5,8: (224,81,18)  #E05112  srgb(224,81,18)
6,8: (220,80,18)  #DC5012  srgb(220,80,18)
7,8: (222,80,18)  #DE5012  srgb(222,80,18)
8,8: (224,81,18)  #E05112  srgb(224,81,18)
9,8: (221,80,18)  #DD5012  srgb(221,80,18)
10,8: (210,76,17)  #D24C11  srgb(210,76,17)
11,8: (224,81,18)  #E05112  srgb(224,81,18)
12,8: (224,81,18)  #E05112  srgb(224,81,18)
13,8: (224,81,18)  #E05112  srgb(224,81,18)
14,8: (196,79,28)  #C44F1C  srgb(196,79,28)
15,8: (162,48,0)  #A23000  srgb(162,48,0)
0,9: (224,81,18)  #E05112  srgb(224,81,18)
1,9: (214,78,17)  #D64E11  srgb(214,78,17)
2,9: (224,81,18)  #E05112  srgb(224,81,18)
3,9: (224,81,18)  #E05112  srgb(224,81,18)
4,9: (224,81,18)  #E05112  srgb(224,81,18)
5,9: (224,81,18)  #E05112  srgb(224,81,18)
6,9: (224,81,18)  #E05112  srgb(224,81,18)
7,9: (221,80,18)  #DD5012  srgb(221,80,18)
8,9: (213,75,14)  #D54B0E  srgb(213,75,14)
9,9: (156,46,0)  #9C2E00  srgb(156,46,0)
10,9: (166,49,0)  #A63100  srgb(166,49,0)
11,9: (209,74,14)  #D14A0E  srgb(209,74,14)
12,9: (224,81,18)  #E05112  srgb(224,81,18)
13,9: (220,79,18)  #DC4F12  srgb(220,79,18)
14,9: (196,79,28)  #C44F1C  srgb(196,79,28)
15,9: (152,45,0)  #982D00  srgb(152,45,0)
0,10: (224,81,18)  #E05112  srgb(224,81,18)
1,10: (224,81,18)  #E05112  srgb(224,81,18)
2,10: (196,71,16)  #C44710  srgb(196,71,16)
3,10: (224,81,18)  #E05112  srgb(224,81,18)
4,10: (224,81,18)  #E05112  srgb(224,81,18)
5,10: (224,81,18)  #E05112  srgb(224,81,18)
6,10: (224,81,18)  #E05112  srgb(224,81,18)
7,10: (224,81,18)  #E05112  srgb(224,81,18)
8,10: (166,49,0)  #A63100  srgb(166,49,0)
9,10: (241,218,128)  #F1DA80  srgb(241,218,128)
10,10: (248,225,131)  #F8E183  srgb(248,225,131)
11,10: (156,46,0)  #9C2E00  srgb(156,46,0)
12,10: (208,75,17)  #D04B11  srgb(208,75,17)
13,10: (196,79,28)  #C44F1C  srgb(196,79,28)
14,10: (165,49,0)  #A53100  srgb(165,49,0)
15,10: (255,0,255)  #FF00FF  magenta
0,11: (196,79,28)  #C44F1C  srgb(196,79,28)
1,11: (224,81,18)  #E05112  srgb(224,81,18)
2,11: (221,80,18)  #DD5012  srgb(221,80,18)
3,11: (224,81,18)  #E05112  srgb(224,81,18)
4,11: (224,81,18)  #E05112  srgb(224,81,18)
5,11: (224,81,18)  #E05112  srgb(224,81,18)
6,11: (218,79,18)  #DA4F12  srgb(218,79,18)
7,11: (220,79,18)  #DC4F12  srgb(220,79,18)
8,11: (166,49,0)  #A63100  srgb(166,49,0)
9,11: (253,229,134)  #FDE586  srgb(253,229,134)
10,11: (0,0,0)  #000000  black
11,11: (160,47,0)  #A02F00  srgb(160,47,0)
12,11: (210,76,17)  #D24C11  srgb(210,76,17)
13,11: (196,79,28)  #C44F1C  srgb(196,79,28)
14,11: (156,46,0)  #9C2E00  srgb(156,46,0)
15,11: (255,0,255)  #FF00FF  magenta
0,12: (166,49,0)  #A63100  srgb(166,49,0)
1,12: (196,79,28)  #C44F1C  srgb(196,79,28)
2,12: (178,72,25)  #B24819  srgb(178,72,25)
3,12: (196,79,28)  #C44F1C  srgb(196,79,28)
4,12: (224,81,18)  #E05112  srgb(224,81,18)
5,12: (216,78,17)  #D84E11  srgb(216,78,17)
6,12: (221,80,18)  #DD5012  srgb(221,80,18)
7,12: (221,80,18)  #DD5012  srgb(221,80,18)
8,12: (166,49,0)  #A63100  srgb(166,49,0)
9,12: (245,222,130)  #F5DE82  srgb(245,222,130)
10,12: (253,229,134)  #FDE586  srgb(253,229,134)
11,12: (163,48,0)  #A33000  srgb(163,48,0)
12,12: (224,81,18)  #E05112  srgb(224,81,18)
13,12: (195,79,28)  #C34F1C  srgb(195,79,28)
14,12: (149,44,0)  #952C00  srgb(149,44,0)
15,12: (255,0,255)  #FF00FF  magenta
0,13: (255,0,255)  #FF00FF  magenta
1,13: (157,46,0)  #9D2E00  srgb(157,46,0)
2,13: (164,48,0)  #A43000  srgb(164,48,0)
3,13: (161,48,0)  #A13000  srgb(161,48,0)
4,13: (191,77,27)  #BF4D1B  srgb(191,77,27)
5,13: (191,77,27)  #BF4D1B  srgb(191,77,27)
6,13: (196,79,28)  #C44F1C  srgb(196,79,28)
7,13: (224,81,18)  #E05112  srgb(224,81,18)
8,13: (219,79,18)  #DB4F12  srgb(219,79,18)
9,13: (166,49,0)  #A63100  srgb(166,49,0)
10,13: (166,49,0)  #A63100  srgb(166,49,0)
11,13: (190,77,27)  #BE4D1B  srgb(190,77,27)
12,13: (194,78,28)  #C24E1C  srgb(194,78,28)
13,13: (162,48,0)  #A23000  srgb(162,48,0)
14,13: (255,0,255)  #FF00FF  magenta
15,13: (255,0,255)  #FF00FF  magenta
0,14: (255,0,255)  #FF00FF  magenta
1,14: (255,0,255)  #FF00FF  magenta
2,14: (255,0,255)  #FF00FF  magenta
3,14: (255,0,255)  #FF00FF  magenta
4,14: (166,49,0)  #A63100  srgb(166,49,0)
5,14: (154,45,0)  #9A2D00  srgb(154,45,0)
6,14: (166,49,0)  #A63100  srgb(166,49,0)
7,14: (196,79,28)  #C44F1C  srgb(196,79,28)
8,14: (196,79,28)  #C44F1C  srgb(196,79,28)
9,14: (196,79,28)  #C44F1C  srgb(196,79,28)
10,14: (172,69,25)  #AC4519  srgb(172,69,25)
11,14: (166,49,0)  #A63100  srgb(166,49,0)
12,14: (157,46,0)  #9D2E00  srgb(157,46,0)
13,14: (255,0,255)  #FF00FF  magenta
14,14: (255,0,255)  #FF00FF  magenta
15,14: (255,0,255)  #FF00FF  magenta
0,15: (255,0,255)  #FF00FF  magenta
1,15: (255,0,255)  #FF00FF  magenta
2,15: (255,0,255)  #FF00FF  magenta
3,15: (255,0,255)  #FF00FF  magenta
4,15: (255,0,255)  #FF00FF  magenta
5,15: (255,0,255)  #FF00FF  magenta
6,15: (255,0,255)  #FF00FF  magenta
7,15: (166,49,0)  #A63100  srgb(166,49,0)
8,15: (166,49,0)  #A63100  srgb(166,49,0)
9,15: (159,47,0)  #9F2F00  srgb(159,47,0)
10,15: (159,47,0)  #9F2F00  srgb(159,47,0)
11,15: (255,0,255)  #FF00FF  magenta
12,15: (255,0,255)  #FF00FF  magenta
13,15: (255,0,255)  #FF00FF  magenta
14,15: (255,0,255)  #FF00FF  magenta
15,15: (255,0,255)  #FF00FF  magenta
